lab1/chisel-design-for-student/test_run_dir/md5_should_do_right_thing/md5.vcd
$date
2022-09-25T13:17+0000
$end
$version
0.2
$end
$comment

$end
$timescale 1ns  $end
$scope module md5 $end
 $var wire 32 ! A_K_50 $end
 $var wire 32 " A_K_52 $end
 $var wire 32 # A_K_51 $end
 $var wire 32 $ A_K_54 $end
 $var wire 32 % A_K_53 $end
 $var wire 32 & A_K_56 $end
 $var wire 32 ' A_K_55 $end
 $var wire 32 ( A_K_58 $end
 $var wire 32 ) A_K_57 $end
 $var wire 32 * A_K_59 $end
 $var wire 32 + AA $end
 $var wire 32 , A_K_61 $end
 $var wire 32 - A_K_60 $end
 $var wire 32 . A_K_63 $end
 $var wire 32 / A_K_62 $end
 $var wire 32 0 BB $end
 $var wire 32 1 A $end
 $var wire 32 2 B $end
 $var wire 32 3 C $end
 $var wire 32 4 D $end
 $var wire 32 5 A_K_30 $end
 $var wire 32 6 A_K_39 $end
 $var wire 32 7 A_K_32 $end
 $var wire 32 8 A_K_31 $end
 $var wire 32 9 A_K_34 $end
 $var wire 32 : A_K_33 $end
 $var wire 32 ; A_K_36 $end
 $var wire 32 < A_K_35 $end
 $var wire 32 = A_K_38 $end
 $var wire 32 > A_K_37 $end
 $var wire 32 ? CC $end
 $var wire 32 @ A_K_41 $end
 $var wire 32 A A_K_40 $end
 $var wire 1 B r $end
 $var wire 32 D A_K_43 $end
 $var wire 32 E A_K_42 $end
 $var wire 32 F A_K_45 $end
 $var wire 32 G A_K_44 $end
 $var wire 32 H A_K_47 $end
 $var wire 32 I A_K_46 $end
 $var wire 32 J A_K_49 $end
 $var wire 32 K A_K_48 $end
 $var wire 32 L DD $end
 $var wire 32 M next_D $end
 $var wire 32 N next_A $end
 $var wire 32 O next_B $end
 $var wire 32 P next_C $end
 $var wire 1 Q io_out_valid $end
 $var wire 1 S io_in_valid $end
 $var wire 8 T next_state $end
 $var wire 1 U out_r $end
 $var wire 1 V clock $end
 $var wire 128 W io_out $end
 $var wire 8 X state $end
 $var wire 1 Y io_ready $end
 $var wire 32 Z cya $end
 $var wire 32 [ cyc $end
 $var wire 32 \ cyb $end
 $var wire 32 ] cyd $end
 $var wire 1 ^ printf_1 $end
 $var wire 1 c printf $end
 $var wire 256 i msg_hi $end
 $var wire 4 j phase $end
 $var wire 128 k io_in $end
 $var wire 1 l reset $end
 $var wire 512 n msg $end
 $var wire 32 o A_K_2 $end
 $var wire 32 p A_K_3 $end
 $var wire 32 q A_K_4 $end
 $var wire 32 r A_K_5 $end
 $var wire 256 s msg_lo $end
 $var wire 32 t A_K_6 $end
 $var wire 32 u A_K_7 $end
 $var wire 32 v A_K_8 $end
 $var wire 32 w A_K_9 $end
 $var wire 32 x A_K_18 $end
 $var wire 32 y A_K_17 $end
 $var wire 32 z A_K_19 $end
 $var wire 32 { A_K_10 $end
 $var wire 32 | A_K_12 $end
 $var wire 32 } A_K_11 $end
 $var wire 32 ~ A_K_14 $end
 $var wire 32 "! A_K_13 $end
 $var wire 32 "" A_K_16 $end
 $var wire 32 "# A_K_15 $end
 $var wire 32 "$ A_K_29 $end
 $var wire 32 "% A_K_28 $end
 $var wire 32 "& A_K_21 $end
 $var wire 32 "' A_K_20 $end
 $var wire 32 "( A_K_23 $end
 $var wire 32 ") A_K_22 $end
 $var wire 32 "* A_K_25 $end
 $var wire 32 "+ A_K_24 $end
 $var wire 32 ", A_K_27 $end
 $var wire 32 "- A_K_26 $end
 $var wire 32 ". A_A $end
 $var wire 32 "/ A_B $end
 $var wire 32 "0 A_C $end
 $var wire 32 "1 A_D $end
 $var wire 32 "2 A_K_0 $end
 $var wire 32 "3 A_K_1 $end
  $scope module r $end
   $var wire 32 C io_next_a $end
   $var wire 32 R left $end
   $var wire 32 _ io_c $end
   $var wire 32 ` io_d $end
   $var wire 32 a io_a $end
   $var wire 32 b io_b $end
   $var wire 32 d io_m $end
   $var wire 5 e io_s $end
   $var wire 32 f io_t $end
   $var wire 2 g io_r $end
   $var wire 32 h right $end
   $var wire 32 m res $end
  $upscope $end
$upscope $end
$enddefinitions $end
$dumpvars
b00000000000000000000000000000000 "/
b00000000000000000000000000000000 +
b00000000000000000000000000000000 ".
b00000000000000000000000000000000 *
b00000000000000000000000000000000 "-
b00000000000000000000000000000000 -
b00000000000000000000000000000000 ",
b00000000000000000000000000000000 ,
b00000000000000000000000000000000 "3
b00000000000000000000000000000000 '
b00000000000000000000000000000000 "2
b00000000000000000000000000000000 &
b00000000000000000000000000000000 "1
b00000000000000000000000000000000 )
b00000000000000000000000000000000 "0
b00000000000000000000000000000000 (
b00000000000000000000000000000000 "'
b00000000000000000000000000000000 #
b00000000000000000000000000000000 "&
b00000000000000000000000000000000 "
b00000000000000000000000000000000 "%
b00000000000000000000000000000000 %
b00000000000000000000000000000000 "$
b00000000000000000000000000000000 $
b00000000000000000000000000000000 "+
b00000000000000000000000000000000 "*
b00000000000000000000000000000000 ")
b00000000000000000000000000000000 !
b00000000000000000000000000000000 "(
b00000000000000000000000000000000 ;
b00000000000000000000000000000000 :
0B
b00000000000000000000000000000000 =
b00000000000000000000000000000000 <
b00000000000000000000000000000000 7
b00000000000000000000000000000000 6
b00000000000000000000000000000000 9
b00000000000000000000000000000000 8
b00000000000000000000000000000000 3
b00000000000000000000000000000000 2
b00000000000000000000000000000000 5
b00000000000000000000000000000000 4
b00000000000000000000000000000000 /
b00000000000000000000000000000000 .
b00000000000000000000000000000000 1
b00000000000000000000000000000000 0
0Q
0S
0U
0V
0Y
0^
0c
b00000000 X
b00000000 T
0l
b00000000000000000000000000000000000000000000000000000000000000000000000000000000000000000000000000000000000000000000000000000000 k
b00000000000000000000000000000000000000000000000000000000000000000000000000000000000000000000000000000000000000000000000000000000 W
b00000000000000000000000000000000 "#
b00000000000000000000000000000000 ""
b00000000000000000000000000000000 "!
b00000000000000000000000000000000 ~
b00000000000000000000000000000000 m
b00000000000000000000000000000000 f
b00000000000000000000000000000000 h
b00000000000000000000000000000000 b
b00000000000000000000000000000000 d
b00000000000000000000000000000000 _
b00000000000000000000000000000000 a
b0000000000000000000000000000000000000000000000000000000000000000000000000000000000000000000000000000000000000000000000000000000000000000000000000000000000000000000000000000000000000000000000000000000000000000000000000000000000000000000000000000000000000000 i
b00000000000000000000000000000000 `
b00000000000000000000000000000000 {
b0000000000000000000000000000000000000000000000000000000000000000000000000000000000000000000000000000000000000000000000000000000000000000000000000000000000000000000000000000000000000000000000000000000000000000000000000000000000000000000000000000000000000000 s
b00000000000000000000000000000000 z
b00000 e
b00 g
b00000000000000000000000000000000 }
b00000000000000000000000000000000 |
b00000000000000000000000000000000 w
b00000000000000000000000000000000 v
b00000000000000000000000000000000 y
b00000000000000000000000000000000 x
b00000000000000000000000000000000 r
b00000000000000000000000000000000 u
b00000000000000000000000000000000 t
b00000000000000000000000000000000 o
b00000000000000000000000000000000 q
b00000000000000000000000000000000 p
b00000000000000000000000000000000 K
b00000000000000000000000000000000 J
b00000000000000000000000000000000 M
b00000000000000000000000000000000 L
b00000000000000000000000000000000 G
b00000000000000000000000000000000 F
b00000000000000000000000000000000 I
b00000000000000000000000000000000 H
b00000000000000000000000000000000 C
b0000 j
b00000000000000000000000000000000 E
b00000000000000000000000000000000 D
b00000000000000000000000000000000 ?
b00000000000000000000000000000000 >
b00000000000000000000000000000000 A
b00000000000000000000000000000000 @
b00000000000000000000000000000000 [
b00000000000000000000000000000000 Z
b00000000000000000000000000000000 ]
b00000000000000000000000000000000 \
b00000000000000000000000000000000000000000000000000000000000000000000000000000000000000000000000000000000000000000000000000000000000000000000000000000000000000000000000000000000000000000000000000000000000000000000000000000000000000000000000000000000000000000000000000000000000000000000000000000000000000000000000000000000000000000000000000000000000000000000000000000000000000000000000000000000000000000000000000000000000000000000000000000000000000000000000000000000000000000000000000000000000000000000000000000000 n
b00000000000000000000000000000000 R
b00000000000000000000000000000000 O
b00000000000000000000000000000000 N
b00000000000000000000000000000000 P
$end
#0
b10101011100101000010001110100111 !
b01100101010110110101100111000011 "
b11111100100100111010000000111001 #
b11111111111011111111010001111101 $
b10001111000011001100110010010010 %
b01101111101010000111111001001111 &
b10000101100001000101110111010001 '
b10100011000000010100001100010100 (
b11111110001011001110011011100000 )
b01001110000010000001000110100001 *
b10111101001110101111001000110101 ,
b11110111010100110111111010000010 -
b11101011100001101101001110010001 .
b00101010110101111101001010111011 /
b01100111011011110000001011011001 5
b10111110101111111011110001110000 6
b11111111111110100011100101000010 7
b10001101001010100100110010001010 8
b01101101100111010110000100100010 9
b10000111011100011111011010000001 :
b10100100101111101110101001000100 ;
b11111101111001010011100000001100 <
b11110110101110110100101101100000 =
b01001011110111101100111110101001 >
b11111101100110000111000110010011 "!
b11101010101000010010011111111010 @
b11110110000111100010010101100010 ""
b00101000100110110111111011000110 A
b01001001101101000000100000100001 "#
b11111100111011111010001111111000 "$
b10101001111000111110100100000101 "%
b00000100100010000001110100000101 D
b00000010010001000001010001010011 "&
b11010100111011110011000010000101 E
b11010110001011110001000001011101 "'
b11100110110110111001100111100101 F
b11100111110100111111101111001000 "(
b11011001110101001101000000111001 G
b11011000101000011110011010000001 ")
b11000100101011000101011001100101 H
b11000011001101110000011111010110 "*
b00011111101000100111110011111000 I
b00100001111000011100110111100110 "+
b01000011001010101111111110010111 J
b01000101010110100001010011101101 ",
b11110100001010010010001001000100 K
b11110100110101010000110110000111 "-
b01100111010001010010001100000001 ".
b11101111110011011010101110001001 "/
b10011000101110101101110011111110 "0
b00010000001100100101010001110110 "1
b11010111011010101010010001111000 "2
b11101000110001111011011101010110 "3
1l
b00100100001000000111000011011011 o
b11000001101111011100111011101110 p
b11110101011111000000111110101111 q
b01000111100001111100011000101010 r
b10101000001100000100011000010011 t
b11111101010001101001010100000001 u
b01101001100000001001100011011000 v
b10001011010001001111011110101111 w
b00100110010111100101101001010001 x
b11000000010000001011001101000000 y
b11101001101101101100011110101010 z
b11111111111111110101101110110001 {
b01101011100100000001000100100010 |
b10001001010111001101011110111110 }
b10100110011110010100001110001110 ~
#1
b00010000001100100101010001110110 M
b01100111010001010010001100000001 N
b11101111110011011010101110001001 O
b10011000101110101101110011111110 P
b01100111010001010010001100000001 1
b11101111110011011010101110001001 2
b10011000101110101101110011111110 3
b00010000001100100101010001110110 4
b00000001 T
1V
b01100111010001010010001100000001111011111100110110101011100010011001100010111010110111001111111000010000001100100101010001110110 W
b00000001 X
1Y
b01100111010001010010001100000001 Z
b10011000101110101101110011111110 [
b11101111110011011010101110001001 \
b00010000001100100101010001110110 ]
#6
1S
b0000000000000000000000000000000000000000000000000000000000000000000000000000000000000000000000000000000000000000000000000011010100000000000000000000000000000000000000000000000000000000000000000000000000000000000000000000000000000000000000000000000000110101 s
b00000010 T
0V
b0000000000000000000000000000000000000000000000000000000000000000000000000000000000000000000000000000000000000000000000000011010100000000000000000000000000000000000000000000000000000000000000000000000000000000000000000000000000000000000000000000000000110101 i
b00000000000000000000000000000000000000000000000000000000000000000000000000000000000000000000000000000000000000000000000000110101 k
0l
#11
b00010000001100100101010001110110 `
b01100111010001010010001100000001 a
b11101111110011011010101110001001 b
b10100101001000000000000111110100 C
b00000000000000000000000000110101 d
b00111 e
b11010111011010101010010001111000 f
b00000000000000000000000001101011 h
b01100111010001010010001100000001 +
b00010000001100100101010001110110 L
b11010111011010101010010010101100 m
b10100101001000000000000111110100 N
b00000000000000000000000000000000000000000000000000000000000000000000000000000000000000000000000000000000000000000000000000110101000000000000000000000000000000000000000000000000000000000000000000000000000000000000000000000000000000000000000000000000001101010000000000000000000000000000000000000000000000000000000000000000000000000000000000000000000000000000000000000000000000000011010100000000000000000000000000000000000000000000000000000000000000000000000000000000000000000000000000000000000000000000000000110101 n
b11101111110011011010101110001001 0
b10110101010100100101011000000000 R
1V
b00000010 X
0Y
b10011000101110101101110011111110 ?
b10011000101110101101110011111110 _
#16
0V
#21
b10011000101110101101110011111110 `
b00010000001100100101010001110110 a
b10100101001000000000000111110100 b
b11110011101101010110110101011101 C
b00000000000000000000000000000000 d
b01100 e
b11101000110001111011011101010110 f
b00000000000000000000101101101001 h
b0001 j
b11110011101101010110110101011101 M
b10110110100101001110100101010110 m
b10100101001000000000000111110100 1
b01001110100101010110000000000000 R
1V
b10100101001000000000000111110100111011111100110110101011100010011001100010111010110111001111111000010000001100100101010001110110 W
b00010000001100100101010001110110 Z
b11101111110011011010101110001001 [
b10100101001000000000000111110100 \
b10011000101110101101110011111110 ]
b11101111110011011010101110001001 _
#26
0V
#31
b11101111110011011010101110001001 `
b10011000101110101101110011111110 a
b11110011101101010110110101011101 b
b10010111000100000100000111100100 C
b10001 e
b00100100001000000111000011011011 f
b00000000000000001101010010000111 h
b0010 j
b01101010010000111101000110101101 m
b10010111000100000100000111100100 P
b10100011010110100000000000000000 R
b11110011101101010110110101011101 4
1V
b10100101001000000000000111110100111011111100110110101011100010011001100010111010110111001111111011110011101101010110110101011101 W
b10011000101110101101110011111110 Z
b10100101001000000000000111110100 [
b11110011101101010110110101011101 \
b11101111110011011010101110001001 ]
b10100101001000000000000111110100 _
#36
0V
#41
b10100101001000000000000111110100 `
b11101111110011011010101110001001 a
b10010111000100000100000111100100 b
b10001001111010010111000011010010 C
b10110 e
b11000001101111011100111011101110 f
b00000000000110010010111011101110 h
b0011 j
b01100100101110111011101111001011 m
b10001001111010010111000011010010 O
b11110010110000000000000000000000 R
b10010111000100000100000111100100 3
1V
b10100101001000000000000111110100111011111100110110101011100010011001011100010000010000011110010011110011101101010110110101011101 W
b11101111110011011010101110001001 Z
b11110011101101010110110101011101 [
b10010111000100000100000111100100 \
b10100101001000000000000111110100 ]
b11110011101101010110110101011101 _
#46
0V
#51
b11110011101101010110110101011101 `
b10100101001000000000000111110100 a
b10001001111010010111000011010010 b
b01100010000110010100001110011000 C
b00000000000000000000000000110101 d
b00111 e
b11110101011111000000111110101111 f
b00000000000000000000000001000110 h
b0100 j
b10001101101100000101111110100101 m
b01100010000110010100001110011000 N
b10001001111010010111000011010010 2
b11011000001011111101001010000000 R
1V
b10100101001000000000000111110100100010011110100101110000110100101001011100010000010000011110010011110011101101010110110101011101 W
b10100101001000000000000111110100 Z
b10010111000100000100000111100100 [
b10001001111010010111000011010010 \
b11110011101101010110110101011101 ]
b10010111000100000100000111100100 _
#56
0V
#61
b10010111000100000100000111100100 `
b11110011101101010110110101011101 a
b01100010000110010100001110011000 b
b11001001011000010000000010011100 C
b00000000000000000000000000000000 d
b01100 e
b01000111100001111100011000101010 f
b00000000000000000000110100000100 h
b0101 j
b11001001011000010000000010011100 M
b11010000010001100111010001111011 m
b01100010000110010100001110011000 1
b01100111010001111011000000000000 R
1V
b01100010000110010100001110011000100010011110100101110000110100101001011100010000010000011110010011110011101101010110110101011101 W
b11110011101101010110110101011101 Z
b10001001111010010111000011010010 [
b01100010000110010100001110011000 \
b10010111000100000100000111100100 ]
b10001001111010010111000011010010 _
#66
0V
#71
b10001001111010010111000011010010 `
b10010111000100000100000111100100 a
b11001001011000010000000010011100 b
b10111011000001000000000000101111 C
b10001 e
b10101000001100000100011000010011 f
b00000000000000001111111110010011 h
b0110 j
b01111111110010011111100011010001 m
b10111011000001000000000000101111 P
b11110001101000100000000000000000 R
b11001001011000010000000010011100 4
1V
b01100010000110010100001110011000100010011110100101110000110100101001011100010000010000011110010011001001011000010000000010011100 W
b10010111000100000100000111100100 Z
b01100010000110010100001110011000 [
b11001001011000010000000010011100 \
b10001001111010010111000011010010 ]
b01100010000110010100001110011000 _
#76
0V
#81
b01100010000110010100001110011000 `
b10001001111010010111000011010010 a
b10111011000001000000000000101111 b
b00010110110110000001001010000001 C
b10110 e
b11111101010001101001010100000001 f
b00000000000101000001001001010010 h
b0111 j
b01010000010010010100100101101111 m
b00010110110110000001001010000001 O
b01011011110000000000000000000000 R
b10111011000001000000000000101111 3
1V
b01100010000110010100001110011000100010011110100101110000110100101011101100000100000000000010111111001001011000010000000010011100 W
b10001001111010010111000011010010 Z
b11001001011000010000000010011100 [
b10111011000001000000000000101111 \
b01100010000110010100001110011000 ]
b11001001011000010000000010011100 _
#86
0V
#91
b11001001011000010000000010011100 `
b01100010000110010100001110011000 a
b00010110110110000001001010000001 b
b01110100010001100111001111010100 C
b00000000000000000000000000110101 d
b00111 e
b01101001100000001001100011011000 f
b00000000000000000000000001010011 h
b1000 j
b10100110101110101101110011000010 m
b01110100010001100111001111010100 N
b00010110110110000001001010000001 2
b01011101011011100110000100000000 R
1V
b01100010000110010100001110011000000101101101100000010010100000011011101100000100000000000010111111001001011000010000000010011100 W
b01100010000110010100001110011000 Z
b10111011000001000000000000101111 [
b00010110110110000001001010000001 \
b11001001011000010000000010011100 ]
b10111011000001000000000000101111 _
#96
0V
#101
b10111011000001000000000000101111 `
b11001001011000010000000010011100 a
b01110100010001100111001111010100 b
b11010100111101011110001100010010 C
b00000000000000000000000000000000 d
b01100 e
b10001011010001001111011110101111 f
b00000000000000000000111100111110 h
b1001 j
b11010100111101011110001100010010 M
b11110011111001100000101011110110 m
b01110100010001100111001111010100 1
b01100000101011110110000000000000 R
1V
b01110100010001100111001111010100000101101101100000010010100000011011101100000100000000000010111111001001011000010000000010011100 W
b11001001011000010000000010011100 Z
b00010110110110000001001010000001 [
b01110100010001100111001111010100 \
b10111011000001000000000000101111 ]
b00010110110110000001001010000001 _
#106
0V
#111
b00010110110110000001001010000001 `
b10111011000001000000000000101111 a
b11010100111101011110001100010010 b
b01110011110110000000010110110001 C
b10001 e
b11111111111111110101101110110001 f
b00000000000000000010001010011111 h
b1010 j
b00010001010011111100111101110001 m
b01110011110110000000010110110001 P
b10011110111000100000000000000000 R
b11010100111101011110001100010010 4
1V
b01110100010001100111001111010100000101101101100000010010100000011011101100000100000000000010111111010100111101011110001100010010 W
b10111011000001000000000000101111 Z
b01110100010001100111001111010100 [
b11010100111101011110001100010010 \
b00010110110110000001001010000001 ]
b01110100010001100111001111010100 _
#116
0V
#121
b01110100010001100111001111010100 `
b00010110110110000001001010000001 a
b01110011110110000000010110110001 b
b11011000110101010100100010001000 C
b10110 e
b10001001010111001101011110111110 f
b00000000001111010100001011010111 h
b1011 j
b11110101000010110101110110010011 m
b11011000110101010100100010001000 O
b01100100110000000000000000000000 R
b01110011110110000000010110110001 3
1V
b01110100010001100111001111010100000101101101100000010010100000010111001111011000000001011011000111010100111101011110001100010010 W
b00010110110110000001001010000001 Z
b11010100111101011110001100010010 [
b01110011110110000000010110110001 \
b01110100010001100111001111010100 ]
b11010100111101011110001100010010 _
#126
0V
#131
b11010100111101011110001100010010 `
b01110100010001100111001111010100 a
b11011000110101010100100010001000 b
b00111100011010011010011100100010 C
b00000000000000000000000000110101 d
b00111 e
b01101011100100000001000100100010 f
b00000000000000000000000000011010 h
b1100 j
b00110100110001110010100010111101 m
b00111100011010011010011100100010 N
b11011000110101010100100010001000 2
b01100011100101000101111010000000 R
1V
b01110100010001100111001111010100110110001101010101001000100010000111001111011000000001011011000111010100111101011110001100010010 W
b01110100010001100111001111010100 Z
b01110011110110000000010110110001 [
b11011000110101010100100010001000 \
b11010100111101011110001100010010 ]
b01110011110110000000010110110001 _
#136
0V
#141
b01110011110110000000010110110001 `
b11010100111101011110001100010010 a
b00111100011010011010011100100010 b
b00110001101111010000101000000111 C
b00000000000000000000000000000000 d
b01100 e
b11111101100110000111000110010011 f
b00000000000000000000001011100101 h
b1101 j
b00110001101111010000101000000111 M
b00101110010111110101010100110110 m
b00111100011010011010011100100010 1
b11110101010100110110000000000000 R
1V
b00111100011010011010011100100010110110001101010101001000100010000111001111011000000001011011000111010100111101011110001100010010 W
b11010100111101011110001100010010 Z
b11011000110101010100100010001000 [
b00111100011010011010011100100010 \
b01110011110110000000010110110001 ]
b11011000110101010100100010001000 _
#146
0V
#151
b11011000110101010100100010001000 `
b01110011110110000000010110110001 a
b00110001101111010000101000000111 b
b01001001010011110010111101111100 C
b10001 e
b10100110011110010100001110001110 f
b00000000000000000010010101110101 h
b1110 j
b00010010101110101000101111001001 m
b01001001010011110010111101111100 P
b00010111100100100000000000000000 R
b00110001101111010000101000000111 4
1V
b00111100011010011010011100100010110110001101010101001000100010000111001111011000000001011011000100110001101111010000101000000111 W
b01110011110110000000010110110001 Z
b00111100011010011010011100100010 [
b00110001101111010000101000000111 \
b11011000110101010100100010001000 ]
b00111100011010011010011100100010 _
#156
0V
#161
b00111100011010011010011100100010 `
b11011000110101010100100010001000 a
b01001001010011110010111101111100 b
b11110101001001010001110100110010 C
b10110 e
b01001001101101000000100000100001 f
b00000000000101011110110110110110 h
b1111 j
b01010111101101101101101010101111 m
b11110101001001010001110100110010 O
b10101011110000000000000000000000 R
b01001001010011110010111101111100 3
b00000100 T
1V
b00111100011010011010011100100010110110001101010101001000100010000100100101001111001011110111110000110001101111010000101000000111 W
b11011000110101010100100010001000 Z
b00110001101111010000101000000111 [
b01001001010011110010111101111100 \
b00111100011010011010011100100010 ]
b00110001101111010000101000000111 _
#166
0V
#171
b00110001101111010000101000000111 `
b00111100011010011010011100100010 a
b11110101001001010001110100110010 b
b01110011000001000110001110100111 C
b00000000000000000000000000110101 d
b00101 e
b11110110000111100010010101100010 f
b01 g
b00000000000000000000000000010101 h
b0000 j
b10101011111011101111101000110011 m
b01110011000001000110001110100111 N
b11110101001001010001110100110010 2
b01111101110111110100011001100000 R
1V
b00111100011010011010011100100010111101010010010100011101001100100100100101001111001011110111110000110001101111010000101000000111 W
b00000100 X
b00111100011010011010011100100010 Z
b01001001010011110010111101111100 [
b11110101001001010001110100110010 \
b00110001101111010000101000000111 ]
b01001001010011110010111101111100 _
#176
0V
#181
b01001001010011110010111101111100 `
b00110001101111010000101000000111 a
b01110011000001000110001110100111 b
b10110110111001011010100101110101 C
b01001 e
b11000000010000001011001101000000 f
b00000000000000000000000111001110 h
b0001 j
b10110110111001011010100101110101 M
b11100111001000011111000010100010 m
b01110011000001000110001110100111 1
b01000011111000010100010000000000 R
1V
b01110011000001000110001110100111111101010010010100011101001100100100100101001111001011110111110000110001101111010000101000000111 W
b00110001101111010000101000000111 Z
b11110101001001010001110100110010 [
b01110011000001000110001110100111 \
b01001001010011110010111101111100 ]
b11110101001001010001110100110010 _
#186
0V
#191
b11110101001001010001110100110010 `
b01001001010011110010111101111100 a
b10110110111001011010100101110101 b
b01110100010001100011001011101001 C
b00000000000000000000000000000000 d
b01110 e
b00100110010111100101101001010001 f
b00000000000000000000100101110100 h
b0010 j
b00100101110100101111010110000010 m
b01110100010001100011001011101001 P
b10111101011000001000000000000000 R
b10110110111001011010100101110101 4
1V
b01110011000001000110001110100111111101010010010100011101001100100100100101001111001011110111110010110110111001011010100101110101 W
b01001001010011110010111101111100 Z
b01110011000001000110001110100111 [
b10110110111001011010100101110101 \
b11110101001001010001110100110010 ]
b01110011000001000110001110100111 _
#196
0V
#201
b01110011000001000110001110100111 `
b11110101001001010001110100110010 a
b01110100010001100011001011101001 b
b01110001001000110110111100000001 C
b10100 e
b11101001101101101100011110101010 f
b00000000000011010011110000011000 h
b0011 j
b11010011110000011000111111001101 m
b01110001001000110110111100000001 O
b11111100110100000000000000000000 R
b01110100010001100011001011101001 3
1V
b01110011000001000110001110100111111101010010010100011101001100100111010001000110001100101110100110110110111001011010100101110101 W
b11110101001001010001110100110010 Z
b10110110111001011010100101110101 [
b01110100010001100011001011101001 \
b01110011000001000110001110100111 ]
b10110110111001011010100101110101 _
#206
0V
#211
b10110110111001011010100101110101 `
b01110011000001000110001110100111 a
b01110001001000110110111100000001 b
b10011011111110010110000010111000 C
b00101 e
b11010110001011110001000001011101 f
b00000000000000000000000000010111 h
b0100 j
b10111001010101101010111110001101 m
b10011011111110010110000010111000 N
b01110001001000110110111100000001 2
b00101010110101011111000110100000 R
1V
b01110011000001000110001110100111011100010010001101101111000000010111010001000110001100101110100110110110111001011010100101110101 W
b01110011000001000110001110100111 Z
b01110100010001100011001011101001 [
b01110001001000110110111100000001 \
b10110110111001011010100101110101 ]
b01110100010001100011001011101001 _
#216
0V
#221
b01110100010001100011001011101001 `
b10110110111001011010100101110101 a
b10011011111110010110000010111000 b
b10110010010100000100001001001101 C
b01001 e
b00000010010001000001010001010011 f
b00000000000000000000000110010101 h
b0101 j
b10110010010100000100001001001101 M
b11001010100010110010101101110000 m
b10011011111110010110000010111000 1
b00010110010101101110000000000000 R
1V
b10011011111110010110000010111000011100010010001101101111000000010111010001000110001100101110100110110110111001011010100101110101 W
b10110110111001011010100101110101 Z
b01110001001000110110111100000001 [
b10011011111110010110000010111000 \
b01110100010001100011001011101001 ]
b01110001001000110110111100000001 _
#226
0V
#231
b01110001001000110110111100000001 `
b01110100010001100011001011101001 a
b10110010010100000100001001001101 b
b11001001010110010000010000111101 C
b01110 e
b11011000101000011110011010000001 f
b00000000000000000000000111110000 h
b0110 j
b00000111110000000101110000100011 m
b11001001010110010000010000111101 P
b00010111000010001100000000000000 R
b10110010010100000100001001001101 4
1V
b10011011111110010110000010111000011100010010001101101111000000010111010001000110001100101110100110110010010100000100001001001101 W
b01110100010001100011001011101001 Z
b10011011111110010110000010111000 [
b10110010010100000100001001001101 \
b01110001001000110110111100000001 ]
b10011011111110010110000010111000 _
#236
0V
#241
b10011011111110010110000010111000 `
b01110001001000110110111100000001 a
b11001001010110010000010000111101 b
b10011101101110010010100101000011 C
b10100 e
b11100111110100111111101111001000 f
b00000000000000000010010100000110 h
b0111 j
b00000010010100000110110101000110 m
b10011101101110010010100101000011 O
b11010100011000000000000000000000 R
b11001001010110010000010000111101 3
1V
b10011011111110010110000010111000011100010010001101101111000000011100100101011001000001000011110110110010010100000100001001001101 W
b01110001001000110110111100000001 Z
b10110010010100000100001001001101 [
b11001001010110010000010000111101 \
b10011011111110010110000010111000 ]
b10110010010100000100001001001101 _
#246
0V
#251
b10110010010100000100001001001101 `
b10011011111110010110000010111000 a
b10011101101110010010100101000011 b
b01111100001111111001000111010101 C
b00000000000000000000000000110101 d
b00101 e
b00100001111000011100110111100110 f
b00000000000000000000000000010010 h
b1000 j
b10010110111101000011001101000100 m
b01111100001111111001000111010101 N
b10011101101110010010100101000011 2
b11011110100001100110100010000000 R
1V
b10011011111110010110000010111000100111011011100100101001010000111100100101011001000001000011110110110010010100000100001001001101 W
b10011011111110010110000010111000 Z
b11001001010110010000010000111101 [
b10011101101110010010100101000011 \
b10110010010100000100001001001101 ]
b11001001010110010000010000111101 _
#256
0V
#261
b11001001010110010000010000111101 `
b10110010010100000100001001001101 a
b01111100001111111001000111010101 b
b11111101001001101111000101111001 C
b01001 e
b11000011001101110000011111010110 f
b00000000000000000000000110100100 h
b1001 j
b11111101001001101111000101111001 M
b11010010010000000111001110101111 m
b01111100001111111001000111010101 1
b10000000111001110101111000000000 R
1V
b01111100001111111001000111010101100111011011100100101001010000111100100101011001000001000011110110110010010100000100001001001101 W
b10110010010100000100001001001101 Z
b10011101101110010010100101000011 [
b01111100001111111001000111010101 \
b11001001010110010000010000111101 ]
b10011101101110010010100101000011 _
#266
0V
#271
b10011101101110010010100101000011 `
b11001001010110010000010000111101 a
b11111101001001101111000101111001 b
b00101110000011010110000001001110 C
b00000000000000000000000000000000 d
b01110 e
b11110100110101010000110110000111 f
b00000000000000000010111011010101 h
b1010 j
b10111011010101001100001110011001 m
b00101110000011010110000001001110 P
b00110000111001100100000000000000 R
b11111101001001101111000101111001 4
1V
b01111100001111111001000111010101100111011011100100101001010000111100100101011001000001000011110111111101001001101111000101111001 W
b11001001010110010000010000111101 Z
b01111100001111111001000111010101 [
b11111101001001101111000101111001 \
b10011101101110010010100101000011 ]
b01111100001111111001000111010101 _
#276
0V
#281
b01111100001111111001000111010101 `
b10011101101110010010100101000011 a
b00101110000011010110000001001110 b
b00010111110101100110001001010111 C
b10100 e
b01000101010110100001010011101101 f
b00000000000010010000001000001001 h
b1011 j
b10010000001000001001111010011100 m
b00010111110101100110001001010111 O
b11101001110000000000000000000000 R
b00101110000011010110000001001110 3
1V
b01111100001111111001000111010101100111011011100100101001010000110010111000001101011000000100111011111101001001101111000101111001 W
b10011101101110010010100101000011 Z
b11111101001001101111000101111001 [
b00101110000011010110000001001110 \
b01111100001111111001000111010101 ]
b11111101001001101111000101111001 _
#286
0V
#291
b11111101001001101111000101111001 `
b01111100001111111001000111010101 a
b00010111110101100110001001010111 b
b10111110001100011100100001111110 C
b00101 e
b10101001111000111110100100000101 f
b00000000000000000000000000000111 h
b1100 j
b00111101001100101101101100110001 m
b10111110001100011100100001111110 N
b00010111110101100110001001010111 2
b10100110010110110110011000100000 R
1V
b01111100001111111001000111010101000101111101011001100010010101110010111000001101011000000100111011111101001001101111000101111001 W
b01111100001111111001000111010101 Z
b00101110000011010110000001001110 [
b00010111110101100110001001010111 \
b11111101001001101111000101111001 ]
b00101110000011010110000001001110 _
#296
0V
#301
b00101110000011010110000001001110 `
b11111101001001101111000101111001 a
b10111110001100011100100001111110 b
b10010001111000010110100011110001 C
b01001 e
b11111100111011111010001111111000 f
b00000000000000000000000001110011 h
b1101 j
b10010001111000010110100011110001 M
b00111001111010011101011111010000 m
b10111110001100011100100001111110 1
b11010011101011111010000000000000 R
1V
b10111110001100011100100001111110000101111101011001100010010101110010111000001101011000000100111011111101001001101111000101111001 W
b11111101001001101111000101111001 Z
b00010111110101100110001001010111 [
b10111110001100011100100001111110 \
b00101110000011010110000001001110 ]
b00010111110101100110001001010111 _
#306
0V
